[ {
  "uid" : "ffb3df941e61dca",
  "name" : "OnboardingNextButtonIOS()",
  "time" : {
    "start" : 1691742092762,
    "stop" : 1691742189694,
    "duration" : 96932
  },
  "status" : "passed",
  "severity" : "normal"
} ]