{
  "uid" : "83edc06c07f9ae9e47eb6dd1b683e4e2",
  "name" : "packages",
  "children" : [ {
    "name" : "testsIOS.Qase.io.OnboardingTests",
    "children" : [ {
      "name" : "OnboardingNextButtonIOS",
      "uid" : "ffb3df941e61dca",
      "parentUid" : "442e532ae04365c075a5afa33ab69238",
      "status" : "passed",
      "time" : {
        "start" : 1691742092762,
        "stop" : 1691742189694,
        "duration" : 96932
      },
      "flaky" : false,
      "newFailed" : false,
      "parameters" : [ ]
    } ],
    "uid" : "testsIOS.Qase.io.OnboardingTests"
  } ]
}