{
  "uid" : "98d3104e051c652961429bf95fa0b5d6",
  "name" : "suites",
  "children" : [ {
    "name" : "testsIOS.Qase.io.OnboardingTests",
    "children" : [ {
      "name" : "OnboardingNextButtonIOS()",
      "uid" : "ffb3df941e61dca",
      "parentUid" : "76d3ffc07bc3141b69ed8c6bcd18dc3b",
      "status" : "passed",
      "time" : {
        "start" : 1691742092762,
        "stop" : 1691742189694,
        "duration" : 96932
      },
      "flaky" : false,
      "newFailed" : false,
      "parameters" : [ ]
    } ],
    "uid" : "76d3ffc07bc3141b69ed8c6bcd18dc3b"
  } ]
}